%YAML 1.1
%TAG !u! tag:unity3d.com,2011:
--- !u!1 &4784512081561438169
GameObject:
  m_ObjectHideFlags: 0
  m_CorrespondingSourceObject: {fileID: 0}
  m_PrefabInstance: {fileID: 0}
  m_PrefabAsset: {fileID: 0}
  serializedVersion: 6
  m_Component:
  - component: {fileID: 1366770905855072362}
  - component: {fileID: 5639617839589933717}
  - component: {fileID: 2493100081756409505}
  m_Layer: 0
  m_Name: Layer1
  m_TagString: Untagged
  m_Icon: {fileID: 0}
  m_NavMeshLayer: 0
  m_StaticEditorFlags: 0
  m_IsActive: 1
--- !u!4 &1366770905855072362
Transform:
  m_ObjectHideFlags: 0
  m_CorrespondingSourceObject: {fileID: 0}
  m_PrefabInstance: {fileID: 0}
  m_PrefabAsset: {fileID: 0}
  m_GameObject: {fileID: 4784512081561438169}
  m_LocalRotation: {x: -0, y: -0, z: -0, w: 1}
  m_LocalPosition: {x: 0, y: 0, z: 0}
  m_LocalScale: {x: 1, y: 1, z: 1}
  m_ConstrainProportionsScale: 0
  m_Children: []
  m_Father: {fileID: 7202264153109165568}
  m_RootOrder: 0
  m_LocalEulerAnglesHint: {x: 0, y: 0, z: 0}
--- !u!1839735485 &5639617839589933717
Tilemap:
  m_ObjectHideFlags: 0
  m_CorrespondingSourceObject: {fileID: 0}
  m_PrefabInstance: {fileID: 0}
  m_PrefabAsset: {fileID: 0}
  m_GameObject: {fileID: 4784512081561438169}
  m_Enabled: 1
  m_Tiles:
  - first: {x: -1, y: -5, z: 0}
    second:
      serializedVersion: 2
      m_TileIndex: 30
      m_TileSpriteIndex: 30
      m_TileMatrixIndex: 0
      m_TileColorIndex: 0
      m_TileObjectToInstantiateIndex: 65535
      dummyAlignment: 0
      m_AllTileFlags: 1073741825
  - first: {x: 0, y: -5, z: 0}
    second:
      serializedVersion: 2
      m_TileIndex: 31
      m_TileSpriteIndex: 31
      m_TileMatrixIndex: 0
      m_TileColorIndex: 0
      m_TileObjectToInstantiateIndex: 65535
      dummyAlignment: 0
      m_AllTileFlags: 1073741825
  - first: {x: 1, y: -5, z: 0}
    second:
      serializedVersion: 2
      m_TileIndex: 32
      m_TileSpriteIndex: 32
      m_TileMatrixIndex: 0
      m_TileColorIndex: 0
      m_TileObjectToInstantiateIndex: 65535
      dummyAlignment: 0
      m_AllTileFlags: 1073741825
  - first: {x: 2, y: -5, z: 0}
    second:
      serializedVersion: 2
      m_TileIndex: 33
      m_TileSpriteIndex: 33
      m_TileMatrixIndex: 0
      m_TileColorIndex: 0
      m_TileObjectToInstantiateIndex: 65535
      dummyAlignment: 0
      m_AllTileFlags: 1073741825
  - first: {x: 3, y: -5, z: 0}
    second:
      serializedVersion: 2
      m_TileIndex: 34
      m_TileSpriteIndex: 34
      m_TileMatrixIndex: 0
      m_TileColorIndex: 0
      m_TileObjectToInstantiateIndex: 65535
      dummyAlignment: 0
      m_AllTileFlags: 1073741825
  - first: {x: 4, y: -5, z: 0}
    second:
      serializedVersion: 2
      m_TileIndex: 35
      m_TileSpriteIndex: 35
      m_TileMatrixIndex: 0
      m_TileColorIndex: 0
      m_TileObjectToInstantiateIndex: 65535
      dummyAlignment: 0
      m_AllTileFlags: 1073741825
  - first: {x: -1, y: -4, z: 0}
    second:
      serializedVersion: 2
      m_TileIndex: 24
      m_TileSpriteIndex: 24
      m_TileMatrixIndex: 0
      m_TileColorIndex: 0
      m_TileObjectToInstantiateIndex: 65535
      dummyAlignment: 0
      m_AllTileFlags: 1073741825
  - first: {x: 0, y: -4, z: 0}
    second:
      serializedVersion: 2
      m_TileIndex: 25
      m_TileSpriteIndex: 25
      m_TileMatrixIndex: 0
      m_TileColorIndex: 0
      m_TileObjectToInstantiateIndex: 65535
      dummyAlignment: 0
      m_AllTileFlags: 1073741825
  - first: {x: 1, y: -4, z: 0}
    second:
      serializedVersion: 2
      m_TileIndex: 26
      m_TileSpriteIndex: 26
      m_TileMatrixIndex: 0
      m_TileColorIndex: 0
      m_TileObjectToInstantiateIndex: 65535
      dummyAlignment: 0
      m_AllTileFlags: 1073741825
  - first: {x: 2, y: -4, z: 0}
    second:
      serializedVersion: 2
      m_TileIndex: 27
      m_TileSpriteIndex: 27
      m_TileMatrixIndex: 0
      m_TileColorIndex: 0
      m_TileObjectToInstantiateIndex: 65535
      dummyAlignment: 0
      m_AllTileFlags: 1073741825
  - first: {x: 3, y: -4, z: 0}
    second:
      serializedVersion: 2
      m_TileIndex: 28
      m_TileSpriteIndex: 28
      m_TileMatrixIndex: 0
      m_TileColorIndex: 0
      m_TileObjectToInstantiateIndex: 65535
      dummyAlignment: 0
      m_AllTileFlags: 1073741825
  - first: {x: 4, y: -4, z: 0}
    second:
      serializedVersion: 2
      m_TileIndex: 29
      m_TileSpriteIndex: 29
      m_TileMatrixIndex: 0
      m_TileColorIndex: 0
      m_TileObjectToInstantiateIndex: 65535
      dummyAlignment: 0
      m_AllTileFlags: 1073741825
  - first: {x: -1, y: -3, z: 0}
    second:
      serializedVersion: 2
      m_TileIndex: 18
      m_TileSpriteIndex: 18
      m_TileMatrixIndex: 0
      m_TileColorIndex: 0
      m_TileObjectToInstantiateIndex: 65535
      dummyAlignment: 0
      m_AllTileFlags: 1073741825
  - first: {x: 0, y: -3, z: 0}
    second:
      serializedVersion: 2
      m_TileIndex: 19
      m_TileSpriteIndex: 19
      m_TileMatrixIndex: 0
      m_TileColorIndex: 0
      m_TileObjectToInstantiateIndex: 65535
      dummyAlignment: 0
      m_AllTileFlags: 1073741825
  - first: {x: 1, y: -3, z: 0}
    second:
      serializedVersion: 2
      m_TileIndex: 20
      m_TileSpriteIndex: 20
      m_TileMatrixIndex: 0
      m_TileColorIndex: 0
      m_TileObjectToInstantiateIndex: 65535
      dummyAlignment: 0
      m_AllTileFlags: 1073741825
  - first: {x: 2, y: -3, z: 0}
    second:
      serializedVersion: 2
      m_TileIndex: 21
      m_TileSpriteIndex: 21
      m_TileMatrixIndex: 0
      m_TileColorIndex: 0
      m_TileObjectToInstantiateIndex: 65535
      dummyAlignment: 0
      m_AllTileFlags: 1073741825
  - first: {x: 3, y: -3, z: 0}
    second:
      serializedVersion: 2
      m_TileIndex: 22
      m_TileSpriteIndex: 22
      m_TileMatrixIndex: 0
      m_TileColorIndex: 0
      m_TileObjectToInstantiateIndex: 65535
      dummyAlignment: 0
      m_AllTileFlags: 1073741825
  - first: {x: 4, y: -3, z: 0}
    second:
      serializedVersion: 2
      m_TileIndex: 23
      m_TileSpriteIndex: 23
      m_TileMatrixIndex: 0
      m_TileColorIndex: 0
      m_TileObjectToInstantiateIndex: 65535
      dummyAlignment: 0
      m_AllTileFlags: 1073741825
  - first: {x: -1, y: -2, z: 0}
    second:
      serializedVersion: 2
      m_TileIndex: 12
      m_TileSpriteIndex: 12
      m_TileMatrixIndex: 0
      m_TileColorIndex: 0
      m_TileObjectToInstantiateIndex: 65535
      dummyAlignment: 0
      m_AllTileFlags: 1073741825
  - first: {x: 0, y: -2, z: 0}
    second:
      serializedVersion: 2
      m_TileIndex: 13
      m_TileSpriteIndex: 13
      m_TileMatrixIndex: 0
      m_TileColorIndex: 0
      m_TileObjectToInstantiateIndex: 65535
      dummyAlignment: 0
      m_AllTileFlags: 1073741825
  - first: {x: 1, y: -2, z: 0}
    second:
      serializedVersion: 2
      m_TileIndex: 14
      m_TileSpriteIndex: 14
      m_TileMatrixIndex: 0
      m_TileColorIndex: 0
      m_TileObjectToInstantiateIndex: 65535
      dummyAlignment: 0
      m_AllTileFlags: 1073741825
  - first: {x: 2, y: -2, z: 0}
    second:
      serializedVersion: 2
      m_TileIndex: 15
      m_TileSpriteIndex: 15
      m_TileMatrixIndex: 0
      m_TileColorIndex: 0
      m_TileObjectToInstantiateIndex: 65535
      dummyAlignment: 0
      m_AllTileFlags: 1073741825
  - first: {x: 3, y: -2, z: 0}
    second:
      serializedVersion: 2
      m_TileIndex: 16
      m_TileSpriteIndex: 16
      m_TileMatrixIndex: 0
      m_TileColorIndex: 0
      m_TileObjectToInstantiateIndex: 65535
      dummyAlignment: 0
      m_AllTileFlags: 1073741825
  - first: {x: 4, y: -2, z: 0}
    second:
      serializedVersion: 2
      m_TileIndex: 17
      m_TileSpriteIndex: 17
      m_TileMatrixIndex: 0
      m_TileColorIndex: 0
      m_TileObjectToInstantiateIndex: 65535
      dummyAlignment: 0
      m_AllTileFlags: 1073741825
  - first: {x: -1, y: -1, z: 0}
    second:
      serializedVersion: 2
      m_TileIndex: 6
      m_TileSpriteIndex: 6
      m_TileMatrixIndex: 0
      m_TileColorIndex: 0
      m_TileObjectToInstantiateIndex: 65535
      dummyAlignment: 0
      m_AllTileFlags: 1073741825
  - first: {x: 0, y: -1, z: 0}
    second:
      serializedVersion: 2
      m_TileIndex: 7
      m_TileSpriteIndex: 7
      m_TileMatrixIndex: 0
      m_TileColorIndex: 0
      m_TileObjectToInstantiateIndex: 65535
      dummyAlignment: 0
      m_AllTileFlags: 1073741825
  - first: {x: 1, y: -1, z: 0}
    second:
      serializedVersion: 2
      m_TileIndex: 8
      m_TileSpriteIndex: 8
      m_TileMatrixIndex: 0
      m_TileColorIndex: 0
      m_TileObjectToInstantiateIndex: 65535
      dummyAlignment: 0
      m_AllTileFlags: 1073741825
  - first: {x: 2, y: -1, z: 0}
    second:
      serializedVersion: 2
      m_TileIndex: 9
      m_TileSpriteIndex: 9
      m_TileMatrixIndex: 0
      m_TileColorIndex: 0
      m_TileObjectToInstantiateIndex: 65535
      dummyAlignment: 0
      m_AllTileFlags: 1073741825
  - first: {x: 3, y: -1, z: 0}
    second:
      serializedVersion: 2
      m_TileIndex: 10
      m_TileSpriteIndex: 10
      m_TileMatrixIndex: 0
      m_TileColorIndex: 0
      m_TileObjectToInstantiateIndex: 65535
      dummyAlignment: 0
      m_AllTileFlags: 1073741825
  - first: {x: 4, y: -1, z: 0}
    second:
      serializedVersion: 2
      m_TileIndex: 11
      m_TileSpriteIndex: 11
      m_TileMatrixIndex: 0
      m_TileColorIndex: 0
      m_TileObjectToInstantiateIndex: 65535
      dummyAlignment: 0
      m_AllTileFlags: 1073741825
  - first: {x: -1, y: 0, z: 0}
    second:
      serializedVersion: 2
      m_TileIndex: 0
      m_TileSpriteIndex: 1
      m_TileMatrixIndex: 0
      m_TileColorIndex: 0
      m_TileObjectToInstantiateIndex: 65535
      dummyAlignment: 0
      m_AllTileFlags: 1073741825
  - first: {x: 1, y: 0, z: 0}
    second:
      serializedVersion: 2
      m_TileIndex: 2
      m_TileSpriteIndex: 2
      m_TileMatrixIndex: 0
      m_TileColorIndex: 0
      m_TileObjectToInstantiateIndex: 65535
      dummyAlignment: 0
      m_AllTileFlags: 1073741825
  - first: {x: 2, y: 0, z: 0}
    second:
      serializedVersion: 2
      m_TileIndex: 3
      m_TileSpriteIndex: 3
      m_TileMatrixIndex: 0
      m_TileColorIndex: 0
      m_TileObjectToInstantiateIndex: 65535
      dummyAlignment: 0
      m_AllTileFlags: 1073741825
  - first: {x: 3, y: 0, z: 0}
    second:
      serializedVersion: 2
      m_TileIndex: 4
      m_TileSpriteIndex: 4
      m_TileMatrixIndex: 0
      m_TileColorIndex: 0
      m_TileObjectToInstantiateIndex: 65535
      dummyAlignment: 0
      m_AllTileFlags: 1073741825
  - first: {x: 4, y: 0, z: 0}
    second:
      serializedVersion: 2
      m_TileIndex: 5
      m_TileSpriteIndex: 5
      m_TileMatrixIndex: 0
      m_TileColorIndex: 0
      m_TileObjectToInstantiateIndex: 65535
      dummyAlignment: 0
      m_AllTileFlags: 1073741825
  - first: {x: 1, y: 1, z: 0}
    second:
      serializedVersion: 2
      m_TileIndex: 41
      m_TileSpriteIndex: 41
      m_TileMatrixIndex: 0
      m_TileColorIndex: 0
      m_TileObjectToInstantiateIndex: 65535
      dummyAlignment: 0
      m_AllTileFlags: 1073741825
  - first: {x: 2, y: 1, z: 0}
    second:
      serializedVersion: 2
      m_TileIndex: 42
      m_TileSpriteIndex: 42
      m_TileMatrixIndex: 0
      m_TileColorIndex: 0
      m_TileObjectToInstantiateIndex: 65535
      dummyAlignment: 0
      m_AllTileFlags: 1073741825
  - first: {x: 3, y: 1, z: 0}
    second:
      serializedVersion: 2
      m_TileIndex: 43
      m_TileSpriteIndex: 43
      m_TileMatrixIndex: 0
      m_TileColorIndex: 0
      m_TileObjectToInstantiateIndex: 65535
      dummyAlignment: 0
      m_AllTileFlags: 1073741825
  - first: {x: 1, y: 2, z: 0}
    second:
      serializedVersion: 2
      m_TileIndex: 38
      m_TileSpriteIndex: 38
      m_TileMatrixIndex: 0
      m_TileColorIndex: 0
      m_TileObjectToInstantiateIndex: 65535
      dummyAlignment: 0
      m_AllTileFlags: 1073741825
  - first: {x: 2, y: 2, z: 0}
    second:
      serializedVersion: 2
      m_TileIndex: 39
      m_TileSpriteIndex: 39
      m_TileMatrixIndex: 0
      m_TileColorIndex: 0
      m_TileObjectToInstantiateIndex: 65535
      dummyAlignment: 0
      m_AllTileFlags: 1073741825
  - first: {x: 3, y: 2, z: 0}
    second:
      serializedVersion: 2
      m_TileIndex: 40
      m_TileSpriteIndex: 40
      m_TileMatrixIndex: 0
      m_TileColorIndex: 0
      m_TileObjectToInstantiateIndex: 65535
      dummyAlignment: 0
      m_AllTileFlags: 1073741825
  - first: {x: 1, y: 3, z: 0}
    second:
      serializedVersion: 2
      m_TileIndex: 1
      m_TileSpriteIndex: 0
      m_TileMatrixIndex: 0
      m_TileColorIndex: 0
      m_TileObjectToInstantiateIndex: 65535
      dummyAlignment: 0
      m_AllTileFlags: 1073741825
  - first: {x: 2, y: 3, z: 0}
    second:
      serializedVersion: 2
      m_TileIndex: 36
      m_TileSpriteIndex: 36
      m_TileMatrixIndex: 0
      m_TileColorIndex: 0
      m_TileObjectToInstantiateIndex: 65535
      dummyAlignment: 0
      m_AllTileFlags: 1073741825
  - first: {x: 3, y: 3, z: 0}
    second:
      serializedVersion: 2
      m_TileIndex: 37
      m_TileSpriteIndex: 37
      m_TileMatrixIndex: 0
      m_TileColorIndex: 0
      m_TileObjectToInstantiateIndex: 65535
      dummyAlignment: 0
      m_AllTileFlags: 1073741825
  m_AnimatedTiles: {}
  m_TileAssetArray:
  - m_RefCount: 1
    m_Data: {fileID: 11400000, guid: 47e33b72f34eda048a6a9c72a8d41b73, type: 2}
  - m_RefCount: 1
    m_Data: {fileID: 11400000, guid: 5c5e9d6dcc5399941ad0d5d6d28edf3d, type: 2}
  - m_RefCount: 1
    m_Data: {fileID: 11400000, guid: 2ee48c32233769d448c75e4f564e812d, type: 2}
  - m_RefCount: 1
    m_Data: {fileID: 11400000, guid: 39e54b2cd4ab6f141b0c8a0b6d924bd0, type: 2}
  - m_RefCount: 1
    m_Data: {fileID: 11400000, guid: 7e7c5bd8df616c64589dc8272d5b872c, type: 2}
  - m_RefCount: 1
    m_Data: {fileID: 11400000, guid: 3eff6c7e749c67e458680b67c5757075, type: 2}
  - m_RefCount: 1
    m_Data: {fileID: 11400000, guid: 06976977bdc032d43b58e21ab714dca3, type: 2}
  - m_RefCount: 1
    m_Data: {fileID: 11400000, guid: 649b8f680928cfc4f8e764b3dd16961c, type: 2}
  - m_RefCount: 1
    m_Data: {fileID: 11400000, guid: e44fa8d8a381028488ec398a3d90b1f9, type: 2}
  - m_RefCount: 1
    m_Data: {fileID: 11400000, guid: b6ed0bef821472b44a7e48459ce375e1, type: 2}
  - m_RefCount: 1
    m_Data: {fileID: 11400000, guid: 71ba2b4fce060be46b0254cc6ccbefeb, type: 2}
  - m_RefCount: 1
    m_Data: {fileID: 11400000, guid: b9bbe8351c289314797b9e7c5d3ed4cb, type: 2}
  - m_RefCount: 1
    m_Data: {fileID: 11400000, guid: 4cfa6468d756a4d48a71ac22ab225a34, type: 2}
  - m_RefCount: 1
    m_Data: {fileID: 11400000, guid: 31e069b4d872ff742920d9133df859b6, type: 2}
  - m_RefCount: 1
    m_Data: {fileID: 11400000, guid: fe62f9160ce1e2e4997003a06d56bd77, type: 2}
  - m_RefCount: 1
    m_Data: {fileID: 11400000, guid: 34cdfe3db97f4d34f927d6d308cd8a39, type: 2}
  - m_RefCount: 1
    m_Data: {fileID: 11400000, guid: 2cba6e082a7f6404998042a398911bed, type: 2}
  - m_RefCount: 1
    m_Data: {fileID: 11400000, guid: b107c7c8b03e5314c8f8b1694b467d87, type: 2}
  - m_RefCount: 1
    m_Data: {fileID: 11400000, guid: 99eb3b91164cc874d895598a19ddb510, type: 2}
  - m_RefCount: 1
    m_Data: {fileID: 11400000, guid: 9878a1d49d688db429cc24b36602fdf1, type: 2}
  - m_RefCount: 1
    m_Data: {fileID: 11400000, guid: dbd93da83eab75948a6035f70570b393, type: 2}
  - m_RefCount: 1
    m_Data: {fileID: 11400000, guid: 3bb9170fd89de794bba7b0f5ad990045, type: 2}
  - m_RefCount: 1
    m_Data: {fileID: 11400000, guid: 40dcc0b6ded0dc642a9d63017ff457eb, type: 2}
  - m_RefCount: 1
    m_Data: {fileID: 11400000, guid: 6ce1b563e29b03a44872889a1a0640ad, type: 2}
  - m_RefCount: 1
    m_Data: {fileID: 11400000, guid: fcb59b0d8333ac14a8573a014db773a4, type: 2}
  - m_RefCount: 1
    m_Data: {fileID: 11400000, guid: 72a916b6e41f11e48a8155b51a15dbf2, type: 2}
  - m_RefCount: 1
    m_Data: {fileID: 11400000, guid: 412de8c31c9914341828b0afc3b0041a, type: 2}
  - m_RefCount: 1
    m_Data: {fileID: 11400000, guid: c45f5bb843b93a5448c48d105728fc1f, type: 2}
  - m_RefCount: 1
    m_Data: {fileID: 11400000, guid: 25b44ff04fc05a349b09b552e921622d, type: 2}
  - m_RefCount: 1
    m_Data: {fileID: 11400000, guid: e700fe5d7e5a8bc429d14061eed0c15e, type: 2}
  - m_RefCount: 1
    m_Data: {fileID: 11400000, guid: 421bb1c70e89d7e4c9e61f5c22f7f169, type: 2}
  - m_RefCount: 1
    m_Data: {fileID: 11400000, guid: b21fb7b07e57c2343ac367b92f04ebe9, type: 2}
  - m_RefCount: 1
    m_Data: {fileID: 11400000, guid: 4094f995df70e7d49b17a49ef807aa81, type: 2}
  - m_RefCount: 1
    m_Data: {fileID: 11400000, guid: 53f337c5c1ca7344ea525288536971d2, type: 2}
  - m_RefCount: 1
    m_Data: {fileID: 11400000, guid: c10cde3da93d2334bbdd6ec37bebbb8f, type: 2}
  - m_RefCount: 1
    m_Data: {fileID: 11400000, guid: b75df2934f1435047843efc5ad908253, type: 2}
  - m_RefCount: 1
    m_Data: {fileID: 11400000, guid: e12941dfd2ee01044bb1c419578c8a85, type: 2}
  - m_RefCount: 1
    m_Data: {fileID: 11400000, guid: 9b8ae5502f3b6ac4eb40779218508831, type: 2}
  - m_RefCount: 1
    m_Data: {fileID: 11400000, guid: 2d1ce80869bc44d4c8a84486f4a4c723, type: 2}
  - m_RefCount: 1
    m_Data: {fileID: 11400000, guid: 8867b4007ad409448b2b63df24b683b2, type: 2}
  - m_RefCount: 1
    m_Data: {fileID: 11400000, guid: c7eaf52a6f46017449fdbbc29413f422, type: 2}
  - m_RefCount: 1
    m_Data: {fileID: 11400000, guid: 455f14a822eb30f4493ae12ab5460b16, type: 2}
  - m_RefCount: 1
    m_Data: {fileID: 11400000, guid: 047358267cb8a82449174427a60bcffd, type: 2}
  - m_RefCount: 1
    m_Data: {fileID: 11400000, guid: 04a91a014335c264dad3d26c7068cd1b, type: 2}
  m_TileSpriteArray:
  - m_RefCount: 1
    m_Data: {fileID: 870745962, guid: 7a51d400a9ed1594f81c0985e0eb597a, type: 3}
  - m_RefCount: 1
    m_Data: {fileID: 1875753469, guid: ff9bf140152d7994880a21ba7eddad00, type: 3}
  - m_RefCount: 1
    m_Data: {fileID: -597404259, guid: 7a51d400a9ed1594f81c0985e0eb597a, type: 3}
  - m_RefCount: 1
    m_Data: {fileID: 160323108, guid: ff9bf140152d7994880a21ba7eddad00, type: 3}
  - m_RefCount: 1
    m_Data: {fileID: -890553162, guid: ff9bf140152d7994880a21ba7eddad00, type: 3}
  - m_RefCount: 1
    m_Data: {fileID: -1026075316, guid: ff9bf140152d7994880a21ba7eddad00, type: 3}
  - m_RefCount: 1
    m_Data: {fileID: 1426151179, guid: ff9bf140152d7994880a21ba7eddad00, type: 3}
  - m_RefCount: 1
    m_Data: {fileID: -1584887754, guid: ff9bf140152d7994880a21ba7eddad00, type: 3}
  - m_RefCount: 1
    m_Data: {fileID: 2070578343, guid: ff9bf140152d7994880a21ba7eddad00, type: 3}
  - m_RefCount: 1
    m_Data: {fileID: -278604127, guid: ff9bf140152d7994880a21ba7eddad00, type: 3}
  - m_RefCount: 1
    m_Data: {fileID: 692217321, guid: ff9bf140152d7994880a21ba7eddad00, type: 3}
  - m_RefCount: 1
    m_Data: {fileID: 2111264266, guid: ff9bf140152d7994880a21ba7eddad00, type: 3}
  - m_RefCount: 1
    m_Data: {fileID: 498036476, guid: ff9bf140152d7994880a21ba7eddad00, type: 3}
  - m_RefCount: 1
    m_Data: {fileID: -1291367989, guid: ff9bf140152d7994880a21ba7eddad00, type: 3}
  - m_RefCount: 1
    m_Data: {fileID: -1143907000, guid: ff9bf140152d7994880a21ba7eddad00, type: 3}
  - m_RefCount: 1
    m_Data: {fileID: -45091004, guid: ff9bf140152d7994880a21ba7eddad00, type: 3}
  - m_RefCount: 1
    m_Data: {fileID: -1037291272, guid: ff9bf140152d7994880a21ba7eddad00, type: 3}
  - m_RefCount: 1
    m_Data: {fileID: -1653196122, guid: ff9bf140152d7994880a21ba7eddad00, type: 3}
  - m_RefCount: 1
    m_Data: {fileID: 807800991, guid: ff9bf140152d7994880a21ba7eddad00, type: 3}
  - m_RefCount: 1
    m_Data: {fileID: 540569868, guid: ff9bf140152d7994880a21ba7eddad00, type: 3}
  - m_RefCount: 1
    m_Data: {fileID: -1640351361, guid: ff9bf140152d7994880a21ba7eddad00, type: 3}
  - m_RefCount: 1
    m_Data: {fileID: -1246726270, guid: ff9bf140152d7994880a21ba7eddad00, type: 3}
  - m_RefCount: 1
    m_Data: {fileID: -1295621362, guid: ff9bf140152d7994880a21ba7eddad00, type: 3}
  - m_RefCount: 1
    m_Data: {fileID: 1428873228, guid: ff9bf140152d7994880a21ba7eddad00, type: 3}
  - m_RefCount: 1
    m_Data: {fileID: -1689770763, guid: ff9bf140152d7994880a21ba7eddad00, type: 3}
  - m_RefCount: 1
    m_Data: {fileID: -1385951629, guid: ff9bf140152d7994880a21ba7eddad00, type: 3}
  - m_RefCount: 1
    m_Data: {fileID: -1551037329, guid: ff9bf140152d7994880a21ba7eddad00, type: 3}
  - m_RefCount: 1
    m_Data: {fileID: -1175316076, guid: ff9bf140152d7994880a21ba7eddad00, type: 3}
  - m_RefCount: 1
    m_Data: {fileID: 925632853, guid: ff9bf140152d7994880a21ba7eddad00, type: 3}
  - m_RefCount: 1
    m_Data: {fileID: -1517325625, guid: ff9bf140152d7994880a21ba7eddad00, type: 3}
  - m_RefCount: 1
    m_Data: {fileID: -1979841516, guid: ff9bf140152d7994880a21ba7eddad00, type: 3}
  - m_RefCount: 1
    m_Data: {fileID: -1922417022, guid: ff9bf140152d7994880a21ba7eddad00, type: 3}
  - m_RefCount: 1
    m_Data: {fileID: -1279028260, guid: ff9bf140152d7994880a21ba7eddad00, type: 3}
  - m_RefCount: 1
    m_Data: {fileID: 86674749, guid: ff9bf140152d7994880a21ba7eddad00, type: 3}
  - m_RefCount: 1
    m_Data: {fileID: -2023692493, guid: ff9bf140152d7994880a21ba7eddad00, type: 3}
  - m_RefCount: 1
    m_Data: {fileID: -1763346712, guid: ff9bf140152d7994880a21ba7eddad00, type: 3}
  - m_RefCount: 1
    m_Data: {fileID: -903158131, guid: 7a51d400a9ed1594f81c0985e0eb597a, type: 3}
  - m_RefCount: 1
    m_Data: {fileID: -1532653767, guid: 7a51d400a9ed1594f81c0985e0eb597a, type: 3}
  - m_RefCount: 1
    m_Data: {fileID: -588388536, guid: 7a51d400a9ed1594f81c0985e0eb597a, type: 3}
  - m_RefCount: 1
    m_Data: {fileID: 229349866, guid: 7a51d400a9ed1594f81c0985e0eb597a, type: 3}
  - m_RefCount: 1
    m_Data: {fileID: 337869293, guid: 7a51d400a9ed1594f81c0985e0eb597a, type: 3}
  - m_RefCount: 1
    m_Data: {fileID: -1153154042, guid: 7a51d400a9ed1594f81c0985e0eb597a, type: 3}
  - m_RefCount: 1
    m_Data: {fileID: -730279313, guid: 7a51d400a9ed1594f81c0985e0eb597a, type: 3}
  - m_RefCount: 1
    m_Data: {fileID: 1725852681, guid: 7a51d400a9ed1594f81c0985e0eb597a, type: 3}
  m_TileMatrixArray:
  - m_RefCount: 44
    m_Data:
      e00: 1
      e01: 0
      e02: 0
      e03: 0
      e10: 0
      e11: 1
      e12: 0
      e13: 0
      e20: 0
      e21: 0
      e22: 1
      e23: 0
      e30: 0
      e31: 0
      e32: 0
      e33: 1
  m_TileColorArray:
  - m_RefCount: 44
    m_Data: {r: 1, g: 1, b: 1, a: 1}
  m_TileObjectToInstantiateArray: []
  m_AnimationFrameRate: 1
  m_Color: {r: 1, g: 1, b: 1, a: 1}
  m_Origin: {x: -1, y: -5, z: 0}
  m_Size: {x: 6, y: 9, z: 1}
  m_TileAnchor: {x: 0.5, y: 0.5, z: 0}
  m_TileOrientation: 0
  m_TileOrientationMatrix:
    e00: 1
    e01: 0
    e02: 0
    e03: 0
    e10: 0
    e11: 1
    e12: 0
    e13: 0
    e20: 0
    e21: 0
    e22: 1
    e23: 0
    e30: 0
    e31: 0
    e32: 0
    e33: 1
--- !u!483693784 &2493100081756409505
TilemapRenderer:
  m_ObjectHideFlags: 0
  m_CorrespondingSourceObject: {fileID: 0}
  m_PrefabInstance: {fileID: 0}
  m_PrefabAsset: {fileID: 0}
  m_GameObject: {fileID: 4784512081561438169}
  m_Enabled: 1
  m_CastShadows: 0
  m_ReceiveShadows: 0
  m_DynamicOccludee: 0
  m_StaticShadowCaster: 0
  m_MotionVectors: 1
  m_LightProbeUsage: 0
  m_ReflectionProbeUsage: 0
  m_RayTracingMode: 0
  m_RayTraceProcedural: 0
  m_RenderingLayerMask: 1
  m_RendererPriority: 0
  m_Materials:
  - {fileID: 10754, guid: 0000000000000000f000000000000000, type: 0}
  m_StaticBatchInfo:
    firstSubMesh: 0
    subMeshCount: 0
  m_StaticBatchRoot: {fileID: 0}
  m_ProbeAnchor: {fileID: 0}
  m_LightProbeVolumeOverride: {fileID: 0}
  m_ScaleInLightmap: 1
  m_ReceiveGI: 1
  m_PreserveUVs: 0
  m_IgnoreNormalsForChartDetection: 0
  m_ImportantGI: 0
  m_StitchLightmapSeams: 1
  m_SelectedEditorRenderState: 0
  m_MinimumChartSize: 4
  m_AutoUVMaxDistance: 0.5
  m_AutoUVMaxAngle: 89
  m_LightmapParameters: {fileID: 0}
  m_SortingLayerID: 0
  m_SortingLayer: 0
  m_SortingOrder: 0
  m_ChunkSize: {x: 32, y: 32, z: 32}
  m_ChunkCullingBounds: {x: 0.08333331, y: 0.08333331, z: 0}
  m_MaxChunkCount: 16
  m_MaxFrameAge: 16
  m_SortOrder: 0
  m_Mode: 0
  m_DetectChunkCullingBounds: 0
  m_MaskInteraction: 0
--- !u!1 &7853718563373242745
GameObject:
  m_ObjectHideFlags: 0
  m_CorrespondingSourceObject: {fileID: 0}
  m_PrefabInstance: {fileID: 0}
  m_PrefabAsset: {fileID: 0}
  serializedVersion: 6
  m_Component:
  - component: {fileID: 7202264153109165568}
  - component: {fileID: 1504309049464879592}
  m_Layer: 0
  m_Name: Dust 2
  m_TagString: Untagged
  m_Icon: {fileID: 0}
  m_NavMeshLayer: 0
  m_StaticEditorFlags: 0
  m_IsActive: 1
--- !u!4 &7202264153109165568
Transform:
  m_ObjectHideFlags: 0
  m_CorrespondingSourceObject: {fileID: 0}
  m_PrefabInstance: {fileID: 0}
  m_PrefabAsset: {fileID: 0}
  m_GameObject: {fileID: 7853718563373242745}
  m_LocalRotation: {x: 0, y: 0, z: 0, w: 1}
  m_LocalPosition: {x: 0, y: 0, z: 0}
  m_LocalScale: {x: 1, y: 1, z: 1}
  m_ConstrainProportionsScale: 0
  m_Children:
  - {fileID: 1366770905855072362}
  m_Father: {fileID: 0}
  m_RootOrder: 0
  m_LocalEulerAnglesHint: {x: 0, y: 0, z: 0}
--- !u!156049354 &1504309049464879592
Grid:
  m_ObjectHideFlags: 0
  m_CorrespondingSourceObject: {fileID: 0}
  m_PrefabInstance: {fileID: 0}
  m_PrefabAsset: {fileID: 0}
  m_GameObject: {fileID: 7853718563373242745}
  m_Enabled: 1
  m_CellSize: {x: 1.1666666, y: 1.1666666, z: 0}
  m_CellGap: {x: 0, y: 0, z: 0}
  m_CellLayout: 0
  m_CellSwizzle: 0
--- !u!114 &1753573644850767015
MonoBehaviour:
  m_ObjectHideFlags: 0
  m_CorrespondingSourceObject: {fileID: 0}
  m_PrefabInstance: {fileID: 0}
  m_PrefabAsset: {fileID: 0}
  m_GameObject: {fileID: 0}
  m_Enabled: 1
  m_EditorHideFlags: 0
  m_Script: {fileID: 12395, guid: 0000000000000000e000000000000000, type: 0}
  m_Name: Palette Settings
  m_EditorClassIdentifier: 
  cellSizing: 0
  m_TransparencySortMode: 0
  m_TransparencySortAxis: {x: 0, y: 0, z: 1}
